module main

go 1.19

require (
	github.com/joho/godotenv v1.4.0
	go.mongodb.org/mongo-driver v1.10.3
)

require (
	github.com/gin-contrib/sse v0.1.0 // indirect
	github.com/go-playground/locales v0.14.0 // indirect
	github.com/go-playground/universal-translator v0.18.0 // indirect
	github.com/go-playground/validator/v10 v10.10.0 // indirect
	github.com/goccy/go-json v0.9.7 // indirect
	github.com/gofrs/uuid v4.0.0+incompatible // indirect
	github.com/gomodule/redigo v1.8.4 // indirect
	github.com/googollee/go-engine.io v1.0.1 // indirect
	github.com/json-iterator/go v1.1.12 // indirect
	github.com/leodido/go-urn v1.2.1 // indirect
	github.com/mattn/go-colorable v0.1.11 // indirect
	github.com/mattn/go-isatty v0.0.14 // indirect
	github.com/modern-go/concurrent v0.0.0-20180306012644-bacd9c7ef1dd // indirect
	github.com/modern-go/reflect2 v1.0.2 // indirect
	github.com/pelletier/go-toml/v2 v2.0.1 // indirect
	github.com/robfig/cron/v3 v3.0.1 // indirect
	github.com/strongo/decimal v0.0.0-20180523215323-a1521d8f65fa // indirect
	github.com/ugorji/go/codec v1.2.7 // indirect
	github.com/valyala/bytebufferpool v1.0.0 // indirect
	github.com/valyala/fasttemplate v1.2.1 // indirect
	golang.org/x/net v0.0.0-20211112202133-69e39bad7dc2 // indirect
	golang.org/x/sys v0.0.0-20211216021012-1d35b9e2eb4e // indirect
	google.golang.org/protobuf v1.28.0 // indirect
	gopkg.in/yaml.v2 v2.4.0 // indirect
)

require (
	github.com/gin-gonic/gin v1.8.1
	github.com/go-co-op/gocron v1.17.0
	github.com/golang/snappy v0.0.1 // indirect
	github.com/googollee/go-socket.io v1.0.1
	github.com/gorilla/websocket v1.5.0
	github.com/jpillora/backoff v1.0.0
	github.com/klauspost/compress v1.13.6 // indirect
	github.com/labstack/gommon v0.4.0
	github.com/montanaflynn/stats v0.0.0-20171201202039-1bf9dbcd8cbe // indirect
	github.com/pkg/errors v0.9.1 // indirect
	github.com/rgamba/evtwebsocket v0.0.0-20181029234908-48b8cd9f8616
	github.com/xdg-go/pbkdf2 v1.0.0 // indirect
	github.com/xdg-go/scram v1.1.1 // indirect
	github.com/xdg-go/stringprep v1.0.3 // indirect
	github.com/youmark/pkcs8 v0.0.0-20181117223130-1be2e3e5546d // indirect
	golang.org/x/crypto v0.0.0-20220622213112-05595931fe9d // indirect
	golang.org/x/sync v0.0.0-20210220032951-036812b2e83c // indirect
	golang.org/x/text v0.3.7 // indirect
	nhooyr.io/websocket v1.8.7
)
